TS;04.03.2024;05.03.2024;13.03.2024;14.03.2024;22.03.2024;;;01.02.2024;05.02.2024;07.02.2024;08.02.2024;12.02.2024;14.02.2024;19.02.2024;20.02.2024;21.02.2024;22.02.2024;27.02.2024;;;09.01.2024;11.01.2024;;;;;;;
MME;01.03.2024;04.03.2024;07.03.2024;20.03.2024;21.03.2024;;;05.02.2024;09.02.2024;15.02.2024;16.02.2024;19.02.2024;26.02.2024;27.02.2024;29.02.2024;;;;;;16.01.2024;;;;;;;;
Globus OSS;11.03.2024;12.03.2024;18.03.2024;21.03.2024;22.03.2024;;;;;;;;;;;;;;;;;;;;;;;;
SGW;06.03.2024;15.03.2024;18.03.2024;22.03.2024;;;;20.02.2024;;;;;;;;;;;;;16.01.2024;;;;;;;;
Globus PASS;05.03.2024;06.03.2024;11.03.2024;12.03.2024;15.03.2024;19.03.2024;21.03.2024;01.02.2024;14.02.2024;15.02.2024;19.02.2024;22.02.2024;27.02.2024;28.02.2024;29.02.2024;;;;;;30.01.2024;;;;;;;;
Basics;13.04.2024;14.04.2024;;;;;;;;;;;;;;;;;;;;;;;;;;;
SigFW;13.04.2024;;;;;;;12.02.2024;15.02.2024;19.02.2024;21.02.2024;27.02.2024;;;;;;;;;19.01.2024;22.01.2024;24.01.2024;;;;;;
SCEF;04.03.2024;06.03.2024;11.03.2024;12.03.2024;;;;28.02.2024;;;;;;;;;;;;;;;;;;;;;
Style guide;01.03.2024;04.03.2024;06.03.2024;18.03.2024;22.03.2024;25.03.2024;26.03.2024;01.02.2024;02.02.2024;05.02.2024;06.02.2024;07.02.2024;08.02.2024;09.02.2024;27.02.2024;;;;;;12.01.2024;15.01.2024;16.01.2024;;;;;;
Link_repair;07.03.2024;10.03.2024;11.03.2024;;;;;05.02.2024;07.02.2024;08.02.2024;;;;;;;;;;;11.01.2024;;;;;;;;
docx_to_markdown;14.03.2024;;;;;;;11.02.2024;12.02.2024;13.02.2024;14.02.2024;15.02.2024;;;;;;;;;;;;;;;;;
docx_modify;;;;;;;;05.02.2024;06.02.2024;07.02.2024;08.02.2024;09.02.2024;12.02.2024;16.02.2024;19.02.2024;20.02.2024;21.02.2024;22.02.2024;26.02.2024;27.02.2024;09.01.2024;10.01.2024;11.01.2024;12.01.2024;14.01.2024;;;;
document_builder;;;;;;;;01.02.2024;;;;;;;;;;;;;29.01.2024;;;;;;;;
SGSN;;;;;;;;05.02.2024;;;;;;;;;;;;;;;;;;;;;
RG;;;;;;;;06.02.2024;14.02.2024;;;;;;;;;;;;;;;;;;;;
SMSFW;;;;;;;;07.02.2024;;;;;;;;;;;;;;;;;;;;;
SG;;;;;;;;07.02.2024;;;;;;;;;;;;;;;;;;;;;
DocsTemplate;;;;;;;;07.02.2024;;;;;;;;;;;;;25.01.2024;;;;;;;;
OSS;;;;;;;;08.02.2024;;;;;;;;;;;;;;;;;;;;;
SB;;;;;;;;09.02.2024;;;;;;;;;;;;;;;;;;;;;
Antifraud;;;;;;;;13.02.2024;;;;;;;;;;;;;;;;;;;;;
PGW;;;;;;;;16.02.2024;;;;;;;;;;;;;25.01.2024;;;;;;;;
Shared;;;;;;;;19.02.2024;22.02.2024;;;;;;;;;;;;;;;;;;;;
STP;;;;;;;;;;;;;;;;;;;;;29.01.2024;31.01.2024;;;;;;;
