January

DOC-1659;https://youtrack.protei.ru/issues/DOC-1659;Troubleshooting;Active;18 марта 2024;400
DOC-1695;https://youtrack.protei.ru/issues/DOC-1695;MME;Active;1 июня 2024;560
DOC-1637;https://youtrack.protei.ru/issues/DOC-1637;SGW;Active;1 июня 2024;160
;;Globus_PASS;Active;1 июня 2024;480
DOC-1595;https://youtrack.protei.ru/issues/DOC-1595;SigFW;Active;1 июня 2024;1440
DOC-1866;https://youtrack.protei.ru/issues/DOC-1866;Style_guide;Closed;;880
DOC-1866;https://youtrack.protei.ru/issues/DOC-1866;link_repair;Closed;;160
DOC-1866;https://youtrack.protei.ru/issues/DOC-1866;docx_modify;Closed;;560
;;document_builder;Closed;;240
;;SGSN;Active;1 июня 2024;240
;;DocsTemplate;Active;;240
;;OSS;Active;1 июня 2024;400
DOC-1638;https://youtrack.protei.ru/issues/DOC-1638;PGW;Active;1 июня 2024;240
DOC-1879;https://youtrack.protei.ru/issues/DOC-1879;STP;Closed;720
------------------------------
February
DOC-1659;https://youtrack.protei.ru/issues/DOC-1659;Troubleshooting;Active;18 марта 2024;1204
DOC-1695;https://youtrack.protei.ru/issues/DOC-1695;MME;Active;1 июня 2024;1120
DOC-1637;https://youtrack.protei.ru/issues/DOC-1637;SGW;Active;1 июня 2024;160
;;Globus_PASS;Active;1 июня 2024;1120
DOC-1595;https://youtrack.protei.ru/issues/DOC-1595;SigFW;Active;1 июня 2024;560
DOC-1942;https://youtrack.protei.ru/issues/DOC-1942;SCEF;Active;1 июня 2024;240
DOC-1866;https://youtrack.protei.ru/issues/DOC-1866;Style_guide;Active;;1204
DOC-1866;https://youtrack.protei.ru/issues/DOC-1866;link_repair;Closed;;244
DOC-1866;https://youtrack.protei.ru/issues/DOC-1866;docx_to_markdown;Closed;;1080
DOC-1866;https://youtrack.protei.ru/issues/DOC-1866;docx_modify;Closed;;1004
;;document_builder;Closed;;120
;;SGSN;Active;1 июня 2024;480
DOC-1880;https://youtrack.protei.ru/issues/DOC-1880;RG;Closed;31 января 2024;280
DOC-1878;https://youtrack.protei.ru/issues/DOC-1878;SMSFW): 68
DOC-1900;https://youtrack.protei.ru/issues/DOC-1900;SG): 68
;;DocsTemplate;Active;;68
;;OSS;Active;1 июня 2024;96
DOC-1881;https://youtrack.protei.ru/issues/DOC-1881;SB;Active;3 апреля 2024;120
DOC-1811;https://youtrack.protei.ru/issues/DOC-1811;Antifraud;Closed;29 февраля 2024;240
DOC-1638;https://youtrack.protei.ru/issues/DOC-1638;PGW;Active;1 июня 2024;160
;;SharedDocs;Active;;440
------------------------------
March
DOC-1659;https://youtrack.protei.ru/issues/DOC-1659;Troubleshooting;Active;18 марта 2024;1200
DOC-1695;https://youtrack.protei.ru/issues/DOC-1695;MME;Active;1 июня 2024;1240
;;Globus_OSS;Active;1 июня 2024;720
DOC-1637;https://youtrack.protei.ru/issues/DOC-1637;SGW;Active;1 июня 2024;640
;;Globus_PASS;Active;1 июня 2024;1520
;;Basics;Closed;;360
DOC-1595;https://youtrack.protei.ru/issues/DOC-1595;SigFW;Active;1 июня 2024;640
DOC-1942;https://youtrack.protei.ru/issues/DOC-1942;SCEF;Active;1 июня 2024;1160
DOC-1866;https://youtrack.protei.ru/issues/DOC-1866;Style_guide;Active;;720
DOC-1866;https://youtrack.protei.ru/issues/DOC-1866;link_repair;Closed;;200
DOC-1866;https://youtrack.protei.ru/issues/DOC-1866;docx_to_markdown;Closed;;240